^C:\USERS\ВИКТОРИЯ\SOURCE\REPOS\К18\К18\DEBUG\К18.OBJ
C:\USERS\Виктория\SOURCE\REPOS\к18\DEBUG\к18.EXE
C:\USERS\Виктория\SOURCE\REPOS\к18\DEBUG\к18.ILK
C:\USERS\ВИКТОРИЯ\SOURCE\REPOS\К18\DEBUG\К18.PDB
